com/geekbrains/lesson4/EmptyBoxTest.class
com/geekbrains/lesson4/FunctionsTest.class
com/geekbrains/lesson4/BoxTest.class
com/geekbrains/lesson4/BoxTest$WhenEmpty.class
com/geekbrains/lesson4/BoxTest$WhenEmpty$WhenOneBall.class
